Mapping the Underlying Social Structure of Reddit · Data Science Diarist
…
subreddit_imp_key <- full_join(reddit_edgelist %>% group_by(id) %>%
                                 summarise(count = sum(weight)),
            reddit_edgelist %>% group_by(id2) %>%
              summarise(count2 = sum(weight)),
            by = c("id" = "id2")) %>%
            mutate(count = ifelse(is.na(count), 0, count)) %>%
            mutate(count2 = ifelse(is.na(count2), 0, count2)) %>%
            mutate(id = id, imp = count + count2) %>% select(id, imp) 

To check it this worked I merging the result with the subreddit_key (which has subreddit names by their id) and arrange by subreddit importance.

left_join(subreddit_imp_key, subreddit_key %>% dplyr::collect(), by = "id") %>%
  arrange(desc(imp))

## # A tibble: 5,561 x 3
##       id    imp subreddit
##    <dbl>  <dbl> <chr>
##  1 28096 107894 funny
##  2 15261 101239 AskReddit
##  3 20340  81208 AdviceAnimals
##  4  5043  73119 pics
##  5 10158  51314 gaming
##  6  5042  47795 videos
##  7 17856  47378 aww
##  8  2526  37311 WTF
##  9 22888  31702 Music
## 10  5055  26666 todayilearned
## # … with 5,551 more rows

These appear be some of the most popular subreddits. They’re mostly about memes and gaming, which are two things that people commonly associate with Reddit.

Next, I reweight the edge weights in reddit_edgelist by subreddit importance. The reason I do this is that the number of users connecting subreddits is partially a function of subreddit popularity. I want edge weights to instead track the overlap in subreddit communities. By reweighted by subreddit importance, I control for the influence of this potentially confounding variable.

reddit_edgelist <- left_join(reddit_edgelist, subreddit_imp_key,
                             by = c("id" = "id")) %>%
                  left_join(., subreddit_imp_key %>% rename(imp2 = imp),
                            by = c("id2" = "id")) %>%
  mutate(imp_fin = (imp + imp2)/2) %>% mutate(weight = weight/imp_fin) %>%
  select(id, id2, weight)

reddit_edgelist

## # A tibble: 56,257 x 3
##       id   id2   weight
##    <dbl> <dbl>    <dbl>
##  1     1 12735 0.0141
##  2     1 10158 0.000311
##  3     1  2601 0.00602
##  4     1 17856 0.000505
##  5     1 22900 0.000488
##  6     1 25542 0.0185
##  7     1 15260 0.00638
##  8     1 20340 0.000320
##  9     2  2770 0.0165
## 10     2 15261 0.000295
## # … with 56,247 more rows
…
subreddit_by_comm

## # A tibble: 5,561 x 4
##    subreddit          id  comm   imp
##    <chr>           <dbl> <dbl> <dbl>
##  1 resumes          2636     1   106
##  2 Resume           6001     1    14
##  3 Norway             93     2    36
##  4 DANMAG           2778     2    36
##  5 Nordiccountries  2974     2     8
##  6 Denmark          5211     2   161
##  7 Swanada          6177     2     4
##  8 SWARJE           7676     2    92
##  9 DanishEnts       8042     2     8
## 10 Aarhus          11176     2     4
## # … with 5,551 more rows

From these 10 rows at least, the groups appear to make sense. Community 1 consists of two subreddits, resumes and Resume (a resume community), and community 2 consists of several subreddits on Denmark and Norway and some other nearby places (a Nordic community?). Still, these communities are pretty small. Let’s calculate community importance by summing the subreddit importance scores of the subreddits in each community.

subreddit_by_comm <- subreddit_by_comm %>% group_by(comm) %>% mutate(comm_imp = sum(imp)) %>% ungroup 

Now let’s store a vector of id’s in order of community importance.

comm_ids <- subreddit_by_comm %>% group_by(comm) %>% slice(1) %>% arrange(desc(comm_imp)) %>% .[["comm"]]

Let’s have a look at the most important community arranged by importance of subreddits within that community.

subreddit_by_comm %>% filter(comm == comm_ids[1]) %>% arrange(desc(imp))

## # A tibble: 2,209 x 5
##    subreddit        id  comm    imp comm_imp
##    <chr>         <dbl> <dbl>  <dbl>    <dbl>
##  1 funny         28096   154 107894  1364159
##  2 AskReddit     15261   154 101239  1364159
##  3 AdviceAnimals 20340   154  81208  1364159
##  4 pics           5043   154  73119  1364159
##  5 gaming        10158   154  51314  1364159
##  6 videos         5042   154  47795  1364159
##  7 aww           17856   154  47378  1364159
##  8 WTF            2526   154  37311  1364159
##  9 Music         22888   154  31702  1364159
## 10 todayilearned  5055   154  26666  1364159
## # … with 2,199 more rows
…
A second more sanguine possibility is that these subreddits do comprise a community - mainstream Reddit. It’s possible that Reddit consists of large core of subreddits devoted to memes, gaming, and advice, and a much smaller periphery dedicated to the discussion of specific topics (like resumes). My suspicion is that what’s going on here is some combination of these two possibilities. In other words, this group of subreddits is a mix of core subreddits and other subreddits than don’t fit into any of the other communities.

Let’s have a lot at the second biggest community that the algorithm identified.

subreddit_by_comm %>% filter(comm == comm_ids[2]) %>% arrange(desc(imp))

## # A tibble: 263 x 5
##    subreddit            id  comm   imp comm_imp
##    <chr>             <dbl> <dbl> <dbl>    <dbl>
##  1 DotA2              2525    76  3408    52550
##  2 tf2                7582    76  2853    52550
##  3 SteamGameSwap     15275    76  2804    52550
##  4 starcraft         22893    76  2286    52550
##  5 tf2trade          22921    76  2171    52550
##  6 Dota2Trade        25524    76  1619    52550
##  7 GiftofGames       22912    76  1499    52550
##  8 SteamTradingCards 17859    76  1245    52550
##  9 Steam              2582    76  1235    52550
## 10 vinyl             22939    76  1152    52550
## # … with 253 more rows

This appears to be some kind of trading/online gaming community. Let’s look at the third biggest community.

subreddit_by_comm %>% filter(comm == comm_ids[3]) %>% arrange(desc(imp))

## # A tibble: 208 x 5
##    subreddit              id  comm   imp comm_imp
##    <chr>               <dbl> <dbl> <dbl>    <dbl>
##  1 electronicmusic     20378   161  2610    24570
##  2 dubstep             25573   161  1210    24570
##  3 WeAreTheMusicMakers 17938   161  1071    24570
##  4 futurebeats          5053   161   751    24570
##  5 trap                18062   161   704    24570
##  6 edmproduction          67   161   694    24570
##  7 electrohouse           43   161   647    24570
##  8 EDM                 20544   161   641    24570
##  9 punk                20413   161   604    24570
## 10 ThisIsOurMusic       5156   161   565    24570
## # … with 198 more rows

Music (mostly electronic)! And the fourth.

subreddit_by_comm %>% filter(comm == comm_ids[4]) %>% arrange(desc(imp))

## # A tibble: 171 x 5
##    subreddit          id  comm   imp comm_imp
##    <chr>           <dbl> <dbl> <dbl>    <dbl>
##  1 hockey           5066    85  3941    20496
##  2 fantasybaseball  5194    85   767    20496
##  3 nhl              7605    85   725    20496
##  4 Austin             97    85   599    20496
##  5 DetroitRedWings 25670    85   542    20496
##  6 sanfrancisco     2744    85   445    20496
##  7 houston         10184    85   435    20496
##  8 leafs            5148    85   406    20496
##  9 BostonBruins    15317    85   382    20496
## 10 mlb              7845    85   365    20496
## # … with 161 more rows

Sports (and cities?)! And the fifth.

subreddit_by_comm %>% filter(comm == comm_ids[5]) %>% arrange(desc(imp))

## # A tibble: 123 x 5
##    subreddit          id  comm   imp comm_imp
##    <chr>           <dbl> <dbl> <dbl>    <dbl>
##  1 cars            15260    87  3300    18887
##  2 motorcycles     12721    87  2776    18887
##  3 Autos            2601    87  1180    18887
##  4 sysadmin        20422    87  1011    18887
##  5 carporn         12735    87   699    18887
##  6 formula1         7749    87   656    18887
##  7 Jeep            25577    87   601    18887
##  8 subaru          22925    87   573    18887
##  9 Cartalk           120    87   499    18887
## 10 techsupportgore 10323    87   438    18887
## # … with 113 more rows

Cars! The sixth?

subreddit_by_comm %>% filter(comm == comm_ids[6]) %>% arrange(desc(imp))

## # A tibble: 138 x 5
##    subreddit       id  comm   imp comm_imp
##    <chr>        <dbl> <dbl> <dbl>    <dbl>
##  1 web_design   10189    56  1414    17926
##  2 Entrepreneur  7698    56  1172    17926
##  3 programming  25544    56  1136    17926
##  4 webdev       10255    56  1066    17926
##  5 Design       22920    56  1059    17926
##  6 windowsphone 25535    56   737    17926
##  7 SEO          20386    56   664    17926
##  8 forhire         68    56   596    17926
##  9 startups     12757    56   569    17926
## 10 socialmedia  25585    56   537    17926
## # … with 128 more rows

Web design! The seventh?

subreddit_by_comm %>% filter(comm == comm_ids[7]) %>% arrange(desc(imp))

## # A tibble: 73 x 5
##    subreddit        id  comm   imp comm_imp
##    <chr>         <dbl> <dbl> <dbl>    <dbl>
##  1 itookapicture 25556   109  3307    15074
##  2 EarthPorn     22899   109  1560    15074
##  3 AbandonedPorn 10252   109   807    15074
##  4 HistoryPorn   10253   109   777    15074
##  5 photocritique  5190   109   725    15074
##  6 CityPorn       7646   109   675    15074
##  7 MapPorn        7593   109   650    15074
##  8 AnimalPorn    20428   109   549    15074
##  9 SkyPorn       12774   109   479    15074
## 10 Astronomy     12820   109   465    15074
## # … with 63 more rows

Cool photos! The eighth?

subreddit_by_comm %>% filter(comm == comm_ids[8]) %>% arrange(desc(imp))

## # A tibble: 82 x 5
##    subreddit      id  comm   imp comm_imp
##    <chr>       <dbl> <dbl> <dbl>    <dbl>
##  1 wow         15288   128  2193    12978
##  2 darksouls   25558   128  1471    12978
##  3 Diablo      10186   128  1359    12978
##  4 Neverwinter 25549   128  1253    12978
##  5 Guildwars2   7598   128   967    12978
##  6 runescape   20388   128   784    12978
##  7 diablo3     20342   128   465    12978
##  8 2007scape   17871   128   372    12978
##  9 swtor        2630   128   318    12978
## 10 Smite       15342   128   287    12978
## # … with 72 more rows

More gaming stuff (I think)! The ninth?

subreddit_by_comm %>% filter(comm == comm_ids[9]) %>% arrange(desc(imp))

## # A tibble: 94 x 5
##    subreddit       id  comm   imp comm_imp
##    <chr>        <dbl> <dbl> <dbl>    <dbl>
##  1 blackops2       28   153  1563    11856
##  2 battlefield3 20385   153  1470    11856
##  3 dayz         20439   153   871    11856
##  4 Eve          10214   153   733    11856
##  5 Planetside   10241   153   714    11856
##  6 aviation     12886   153   675    11856
##  7 airsoft      17928   153   557    11856
##  8 WorldofTanks 22940   153   433    11856
##  9 Warframe      5143   153   362    11856
## 10 CallOfDuty   20344   153   320    11856
## # … with 84 more rows

War gaming/actual warfare! The tenth?

subreddit_by_comm %>% filter(comm == comm_ids[10]) %>% arrange(desc(imp))

## # A tibble: 102 x 5
##    subreddit      id  comm   imp comm_imp
##    <chr>       <dbl> <dbl> <dbl>    <dbl>
##  1 soccer       7610   174  4417    11398
##  2 Seattle     28183   174   843    11398
##  3 Fifa13      12724   174   508    11398
##  4 Portland     7736   174   496    11398
##  5 MLS         10205   174   386    11398
##  6 Gunners      7609   174   371    11398
##  7 reddevils    7661   174   348    11398
##  8 chelseafc   25650   174   340    11398
##  9 football    20529   174   329    11398
## 10 LiverpoolFC   119   174   218    11398
## # … with 92 more rows
…
community_edgelist <- left_join(reddit_edgelist, subreddit_by_comm %>% select(id, comm), by = "id") %>%
  left_join(., subreddit_by_comm %>% select(id, comm) %>% rename(comm2 = comm), by = c("id2"= "id")) %>%
  select(comm, comm2, weight) %>%
  mutate(id_pair = .5*(comm + comm2)*(comm + comm2 + 1) + pmax(comm,comm2)) %>% group_by(id_pair) %>%
  mutate(weight_fin = mean(weight)) %>% slice(1) %>% ungroup %>% select(comm, comm2, weight_fin) %>%
  filter(comm != comm2)

We now have a community-level edgelist, consisting of community ids for the community nodes connected by each edge. Many of the edges in this dataframe are connecting nodes to themselves (i.e. comm = comm2). We want to remove these. Let’s look at the data.

community_edgelist <- community_edgelist %>% filter(comm != comm2) %>%
  arrange(desc(weight_fin))
community_edgelist

## # A tibble: 532 x 3
##     comm comm2 weight_fin
##    <dbl> <dbl>      <dbl>
##  1   133    71     0.0388
##  2   171   196     0.0327
##  3    48   161     0.0299
##  4   118   156     0.0281
##  5    83   109     0.0273
##  6   155   143     0.0257
##  7    85    83     0.0254
##  8   163   105     0.0253
##  9   171   133     0.0250
## 10   100    56     0.0240
## # … with 522 more rows
…
