Introducing twittercrawler · Data Diarist
…
api_token <- api_credentials_to_token(app_name, consumer_key, consumer_secret, access_token, access_secret)

The twittercrawler package has one main function: get_user_network. This function requires three parameters. The first parameter, screen_name, is the screen name of the Twitter user you want to collect network data from. The second required parameter, degrees, is the number of “degrees out” you want twittercrawler to go (more on this in a moment). Finally, the token parameter takes the API token returned from api_credentials_to_token.

Let’s go through example to clarify what these parameters mean. Let’s say I want to collect two degrees of network data for myself. I run the following line of code.

user_content <- get_user_network(screen_name = "Andrew_Carr24", degree = 2, token = api_token)

This function returns a named list containing two items: a dataframe (nodes) with user information for my Twitter friends and my friends’ friends - in other words, everyone two degrees removed from me on Twitter - and another dataframe (edgelist) indicating ties among these users.

user_content

## $nodes
## # A tibble: 85,757 x 10
##    id     screen_name  name  friends_count followers_count location description
##    <chr>  <chr>        <chr>         <int>           <int> <chr>    <chr>
##  1 77861… Andrew_Carr… Andr…            94             104 "Durham… "Sociology …
##  2 12716… RStatsJobsB… RSta…             1             707 ""       "Are you lo…
##  3 53854… CarenArbeit  Dr. …           228             401 "San Fr… "Sociologis…
##  4 30922… Effect_Altr… Effe…            60           15355 ""       "#effective…
##  5 36300… willmacaski… Will…          1183           27492 "Oxford" "Assoc Prof…
##  6 46955… GrahamDavidA Davi…          1887           34253 "Durham… "\"Dispirit…
##  7 16017… NateSilver5… Nate…          1378         3642961 "New Yo… "Founder, E…
##  8 11699… SamHarrisOrg Sam …           553         1470122 ""       "Author of …
##  9 10448… i_zzzzzz     Broo…           842           33899 "Montre… "Send me yo…
## 10 65934… eidlin       Barr…          1818            2650 "Montré… "Former org…
## # … with 85,747 more rows, and 3 more variables: url <chr>,
## #   profile_image_url <chr>, degree <dbl>
##
## $edges
## # A tibble: 120,094 x 2
##    from               to
##    <chr>              <chr>
##  1 778619636510326784 1271627871098941441
##  2 778619636510326784 538544281
##  3 778619636510326784 3092297686
##  4 778619636510326784 363005534
##  5 778619636510326784 46955476
##  6 778619636510326784 16017475
##  7 778619636510326784 116994659
##  8 778619636510326784 10448062
##  9 778619636510326784 65934237
## 10 778619636510326784 749397927462703105
## # … with 120,084 more rows
…
