Introducing twittercrawler · Data Diarist
…
api_token <- api_credentials_to_token(app_name, consumer_key, consumer_secret, access_token, access_secret)

The twittercrawler package has one main function: get_user_network. This function requires three parameters. The first parameter, screen_name, is the screen name of the Twitter user you want to collect network data from. The second required parameter, degrees, is the number of “degrees out” you want twittercrawler to go (more on this in a moment). Finally, the token parameter takes the API token returned from api_credentials_to_token.

Let’s go through example to clarify what these parameters mean. Let’s say I want to collect two degrees of network data for myself. I run the following line of code.

user_content <- get_user_network(screen_name = "Andrew_Carr24", degree = 2, token = api_token)

This function returns a named list containing two items: a dataframe (nodes) with user information for my Twitter friends and my friends’ friends - in other words, everyone two degrees removed from me on Twitter - and another dataframe (edgelist) indicating ties among these users.

user_content

## $nodes
## # A tibble: 85,757 x 10
##    id     screen_name  name  friends_count followers_count location description
##    <chr>  <chr>        <chr>         <int>           <int> <chr>    <chr>
##  1 77861… Andrew_Carr… Andr…            94             104 "Durham… "Sociology …
##  2 12716… RStatsJobsB… RSta…             1             707 ""       "Are you lo…
##  3 53854… CarenArbeit  Dr. …           228             401 "San Fr… "Sociologis…
##  4 30922… Effect_Altr… Effe…            60           15355 ""       "#effective…
##  5 36300… willmacaski… Will…          1183           27492 "Oxford" "Assoc Prof…
##  6 46955… GrahamDavidA Davi…          1887           34253 "Durham… "\"Dispirit…
##  7 16017… NateSilver5… Nate…          1378         3642961 "New Yo… "Founder, E…
##  8 11699… SamHarrisOrg Sam …           553         1470122 ""       "Author of …
##  9 10448… i_zzzzzz     Broo…           842           33899 "Montre… "Send me yo…
## 10 65934… eidlin       Barr…          1818            2650 "Montré… "Former org…
## # … with 85,747 more rows, and 3 more variables: url <chr>,
## #   profile_image_url <chr>, degree <dbl>
##
## $edges
## # A tibble: 120,094 x 2
##    from               to
##    <chr>              <chr>
##  1 778619636510326784 1271627871098941441
##  2 778619636510326784 538544281
##  3 778619636510326784 3092297686
##  4 778619636510326784 363005534
##  5 778619636510326784 46955476
##  6 778619636510326784 16017475
##  7 778619636510326784 116994659
##  8 778619636510326784 10448062
##  9 778619636510326784 65934237
## 10 778619636510326784 749397927462703105
## # … with 120,084 more rows
…
What if I want to conduct a more refined search of a Twitter community? For instance, I may wish to limit my search to data scientists and statisticians. To do this, I use the filter_col and filter_val parameters. filter_col takes the column name of the user dataframe according to which I want to narrow my search. I can use this to limit my search to users whose description field contains a term or set of terms, whose location gives a certain place, or whose followers_count (number of followers) is greater than or less than a certain number. The filter_val parameter is the value(s) according to which I want to filter the results.

To limit my search to data scientists and statisticians, I’ll only include users that mention “data scientist” or “statistician” in their description field. To put this, I enter “description” in the filter_col field and “(data scientist|statistician)” in the filter_val field. Because only a subset of the people I follow on Twitter are data scientists/statisticians, I’ll go three degrees out to collect an adequately large sample.

user_content <- get_user_network(screen_name = "Andrew_Carr24", degree = 3, token = api_token,
                                 filter_col = "description", filter_val = "(data scientist|statistician)")

# Getting nodes and edgelist
node_tbl <- user_content[[1]]
edgelist_tbl <- user_content[[2]]

node_tbl

## # A tibble: 5,360 x 10
##    id     screen_name  name  friends_count followers_count location description
##    <chr>  <chr>        <chr>         <int>           <int> <chr>    <chr>
##  1 77861… Andrew_Carr… Andr…            94             104 "Durham… Sociology P…
##  2 14505… minimaxir    Max …           401           10379 "San Fr… Data Scient…
##  3 10817… koehrsen_wi… Will…            85            8514 "Illino… Data Scient…
##  4 76965… MariannaFoos Mari…           614             647 "Boston… Former benc…
##  5 92351… R_by_Ryo     ⚽️Ry…           593            3667 "Tokyo-… #rstats | M…
##  6 15582… kareem_carr  🔥 Ka…           850           64507 "Cambri… Statisticia…
##  7 29919… rlbarter     Rebe…           508            2435 ""       Data Scient…
##  8 46646… aschinchon   Anto…           671            3438 "Madrid… Maths, gene…
##  9 82171… _RCharlie    Char…           433             806 ""       Data scient…
## 10 14629… JonTheGeek   Jon …          1637            3232 "Austin… Admin of @R…
## # … with 5,350 more rows, and 3 more variables: url <chr>,
## #   profile_image_url <chr>, degree <dbl>
…
# Discipline name must be included in string that also has "phd student" or "phd candidate
ss_disciplines_str <- paste0("(phd (student|candidate).*", ss_disciplines_str, ".*phd (student|candidate))")

The ss_disciplines_str string will limit the results to users whose description has “phd student” or “phd candidate” as well as one of the disciplines in ss_disciplines. The filter matching feature of get_user_network is not case sensitive, so it does not matter if any of these words are capitalized. Let’s run the get_user_network function and see what we get. I’m going to use myself as the “focal” user and go 4 degrees out.

user_content <- get_user_network(screen_name = "Andrew_Carr24", degree = 4, token = api_token,
                                 filter_col = "description", filter_val = ss_disciplines_str)

phd_nodes <- user_content[[1]]
phd_edgelist <- user_content[[2]]

node_tbl

## # A tibble: 2,830 x 10
##         id screen_name  name  friends_count followers_count location description
##      <dbl> <chr>        <chr>         <dbl>           <dbl> <chr>    <chr>
##  1 7.79e17 Andrew_Carr… Andr…            95             105 Durham,… "Sociology…
##  2 6.15e 8 JosephRoso   Jose…           212              94 Durham,… "PhD candi…
##  3 4.04e 7 Oskarryden   Oska…          3744            1331 Gothenb… "PhD stude…
##  4 1.19e 8 allisonstol… Alli…           289             128 <NA>     "Joint Soc…
##  5 1.93e 8 Devin_Corne… Devi…           424             304 Durham,… "Sociology…
##  6 9.47e17 Robert_Dors… Robe…           399             261 Cambrid… "PhD Candi…
##  7 2.21e 9 AVanRemoort… Anna…           344             121 <NA>     "Sociology…
##  8 9.08e17 uhmanduhdawn Aman…          1592            1715 San Ant… "PhD Candi…
##  9 1.64e 9 Claire_LeBar Clai…           659             142 Toronto  "PhD candi…
## 10 2.29e 9 taywbrown    Tayl…           283             641 <NA>     "Computati…
## # … with 2,820 more rows, and 3 more variables: url <chr>,
## #   profile_image_url <chr>, degree <dbl>
…
