Building a Recommender System with Beer Data · Data Science Diarist
…
## [1] "Ballast Point Brewing Company Sculpin - Habanero"
## [2] "Ballast Point Brewing Company Sculpin - Unfiltered"
## [3] "Ballast Point Brewing Company Sculpin - Grapefruit"
## [4] "Ballast Point Brewing Company Sculpin - Spruce Tip"
## [5] "Ballast Point Brewing Company Sculpin - Aloha"
## [6] "Ballast Point Brewing Company Sculpin"
## [7] "Ballast Point Brewing Company Sculpin - Pineapple"

As you can see, many kinds of Sculpins appear in the dataset. I’ll index the list for the original Sculpin.

# Beers similar to Sculpin
item_similarity_matrix[grep("Sculpin", beer_key$beer_full)[6]]

## [[1]]
## # A tibble: 500 x 3
##    `Ballast Point Brewing Company Sculpin`                   id score
##    <chr>                                                  <dbl> <dbl>
##  1 Lagunitas Brewing Company Lagunitas Sucks              22503 0.698
##  2 Stone Brewing Enjoy By IPA                              6125 0.688
##  3 Firestone Walker Brewing Co. Union Jack IPA            20412 0.595
##  4 Lagunitas Brewing Company Lagunitas IPA                18369 0.579
##  5 Russian River Brewing Company Pliny The Elder          12336 0.570
##  6 Cigar City Brewing Jai Alai IPA                           12 0.541
##  7 Green Flash Brewing Co. West Coast IPA                  4096 0.526
##  8 Lagunitas Brewing Company A Little Sumpin' Sumpin' Ale  2106 0.523
##  9 Bear Republic Brewing Co. Racer 5 India Pale Ale        6211 0.519
## 10 Lagunitas Brewing Company Hop Stoopid                   2022 0.506
## # … with 490 more rows

This tibble shows the 500 most similar beers to Sculpin sorted in decreasing order of their similarity. The list consists mainly of American IPAs, which is what Sculpin is. I can attest to the similarity of some of the beers on this list (Bear Republic’s Racer 5, Stone’s Enjoy By) to Sculpin. It’s also worth noting that many of these beers come from Californian breweries, which is where Sculpin is brewed. This may reflect a tendency of reviewers to be more familiar with beers in their own region. This sort of regional clustering presents problems for the validity of the recommender system, especially if one’s region has little bearing on one’s beer preferences. Still, I’m encouraged by this list. In fact, these are some of my favorite beers. Just to show that I’m not cherry picking, I’ll randomly select a beer from my list of beers and check its similarity scores for face validity.

set.seed(123)
item_similarity_matrix[base::sample(nrow(beer_key), 1)]

## [[1]]
## # A tibble: 500 x 3
##    `Pipeworks Brewing Company Citra Saison`                      id score
##    <chr>                                                      <dbl> <dbl>
##  1 Pipeworks Brewing Company Just Drink It, Dummy!            23014 0.978
##  2 Pipeworks Brewing Company Amarillo                           320 0.973
##  3 Pipeworks Brewing Company Fully Hoperational Battlestation  8674 0.964
##  4 Pipeworks Brewing Company Nelson Sauvin                     7106 0.961
##  5 Pipeworks Brewing Company Mosaic                           19037 0.958
##  6 Spiteful Brewing The Whale Tickler Mango IPA                 973 0.956
##  7 BrickStone Restaurant & Brewery HopSkipNImDrunk            12548 0.954
##  8 Pipeworks Brewing Company Derketo                           6267 0.953
##  9 Pipeworks Brewing Company Kwingston's Kitty Cat-ina         2548 0.949
## 10 Pipeworks Brewing Company Beejay's Weirdo Brown Ale        22642 0.949
## # … with 490 more rows
…
